# Time of run: Wed Jan 15 04:00:10 2020
# Hostname: draco2
# CPU:        Intel(R) Xeon(R) CPU E5-2640 v2 @ 2.00GHz
# Family: 6, Model: 62, Stepping: 4
# Nominal frequency:   2.00 GHz
Statistics on exit
Aggregate for all threads
Timer,                      SampleCount,    Min,      Mean,       Max,     Total,        SD
OMP_worker_thread_life      ,  16.00   , 299.23 GT, 299.24 GT, 299.25 GT,   4.79 TT,   5.19 MT
FOR_static_scheduling       ,   0.00   ,   0.00  T,   0.00  T,   0.00  T,   0.00  T,   0.00  T
FOR_dynamic_scheduling      ,   0.00   ,   0.00  T,   0.00  T,   0.00  T,   0.00  T,   0.00  T
OMP_critical                ,   0.00   ,   0.00  T,   0.00  T,   0.00  T,   0.00  T,   0.00  T
OMP_critical_wait           ,   0.00   ,   0.00  T,   0.00  T,   0.00  T,   0.00  T,   0.00  T
OMP_single                  ,   0.00   ,   0.00  T,   0.00  T,   0.00  T,   0.00  T,   0.00  T
OMP_master                  ,   0.00   ,   0.00  T,   0.00  T,   0.00  T,   0.00  T,   0.00  T
OMP_idle                    ,  15.00   , 869.34 kT, 872.50 kT, 874.69 kT,  13.09 MT,   1.55 kT
OMP_plain_barrier           ,  16.00   ,  53.74 GT,  85.27 GT, 111.16 GT,   1.36 TT,  20.94 GT
OMP_fork_barrier            ,  31.00   ,  50.43 kT,   5.20 MT,  12.73 MT, 161.11 MT,   2.88 MT
OMP_join_barrier            ,  16.00   , 954.00  T,   5.77 kT,  40.31 kT,  92.35 kT,  10.32 kT
OMP_parallel                ,  15.00   ,   4.13 kT,   6.57 kT,  19.61 kT,  98.51 kT,   4.05 kT
OMP_task_immediate          ,   0.00   ,   0.00  T,   0.00  T,   0.00  T,   0.00  T,   0.00  T
OMP_task_taskwait           ,   0.00   ,   0.00  T,   0.00  T,   0.00  T,   0.00  T,   0.00  T
OMP_task_taskyield          ,   0.00   ,   0.00  T,   0.00  T,   0.00  T,   0.00  T,   0.00  T
OMP_task_taskgroup          ,   0.00   ,   0.00  T,   0.00  T,   0.00  T,   0.00  T,   0.00  T
OMP_task_join_bar           ,   0.00   ,   0.00  T,   0.00  T,   0.00  T,   0.00  T,   0.00  T
OMP_task_plain_bar          ,  11.44 k ,  47.70 MT, 299.23 MT, 668.45 MT,   3.42 TT,  98.75 MT
OMP_serial                  ,   1.00   , 130.92 MT, 130.92 MT, 130.92 MT, 130.92 MT,   0.00  T
OMP_taskloop_scheduling     ,   0.00   ,   0.00  T,   0.00  T,   0.00  T,   0.00  T,   0.00  T
OMP_set_numthreads          ,   0.00   ,   0.00   ,   0.00   ,   0.00   ,   0.00   ,   0.00   
OMP_PARALLEL_args           ,   1.00   ,   2.00   ,   2.00   ,   2.00   ,   2.00   ,   0.00   
FOR_static_iterations       ,   0.00   ,   0.00   ,   0.00   ,   0.00   ,   0.00   ,   0.00   
FOR_dynamic_iterations      ,   0.00   ,   0.00   ,   0.00   ,   0.00   ,   0.00   ,   0.00   
FOR_static_steal_stolen     ,   0.00   ,   0.00   ,   0.00   ,   0.00   ,   0.00   ,   0.00   
FOR_static_steal_chunks     ,   0.00   ,   0.00   ,   0.00   ,   0.00   ,   0.00   ,   0.00   
Total_OMP_worker_thread_life,  16.00   , 299.23 GT, 299.24 GT, 299.25 GT,   4.79 TT,   5.19 MT
Total_FOR_static_scheduling ,  16.00   ,   0.00  T,   0.00  T,   0.00  T,   0.00  T,   0.00  T
Total_FOR_dynamic_scheduling,  16.00   ,   0.00  T,   0.00  T,   0.00  T,   0.00  T,   0.00  T
Total_OMP_critical          ,  16.00   ,   0.00  T,   0.00  T,   0.00  T,   0.00  T,   0.00  T
Total_OMP_critical_wait     ,  16.00   ,   0.00  T,   0.00  T,   0.00  T,   0.00  T,   0.00  T
Total_OMP_single            ,  16.00   ,   0.00  T,   0.00  T,   0.00  T,   0.00  T,   0.00  T
Total_OMP_master            ,  16.00   ,   0.00  T,   0.00  T,   0.00  T,   0.00  T,   0.00  T
Total_OMP_idle              ,  16.00   ,   0.00  T, 817.96 kT, 874.69 kT,  13.09 MT, 211.20 kT
Total_OMP_plain_barrier     ,  16.00   ,  53.74 GT,  85.27 GT, 111.16 GT,   1.36 TT,  20.94 GT
Total_OMP_fork_barrier      ,  16.00   ,  50.43 kT,  10.07 MT,  18.29 MT, 161.11 MT,   4.59 MT
Total_OMP_join_barrier      ,  16.00   , 954.00  T,   5.77 kT,  40.31 kT,  92.35 kT,  10.32 kT
Total_OMP_parallel          ,  16.00   ,   0.00  T,   6.16 kT,  19.61 kT,  98.51 kT,   4.23 kT
Total_OMP_task_immediate    ,  16.00   ,   0.00  T,   0.00  T,   0.00  T,   0.00  T,   0.00  T
Total_OMP_task_taskwait     ,  16.00   ,   0.00  T,   0.00  T,   0.00  T,   0.00  T,   0.00  T
Total_OMP_task_taskyield    ,  16.00   ,   0.00  T,   0.00  T,   0.00  T,   0.00  T,   0.00  T
Total_OMP_task_taskgroup    ,  16.00   ,   0.00  T,   0.00  T,   0.00  T,   0.00  T,   0.00  T
Total_OMP_task_join_bar     ,  16.00   ,   0.00  T,   0.00  T,   0.00  T,   0.00  T,   0.00  T
Total_OMP_task_plain_bar    ,  16.00   , 188.06 GT, 213.95 GT, 245.48 GT,   3.42 TT,  20.95 GT
Total_OMP_serial            ,  16.00   ,   0.00  T,   8.18 MT, 130.92 MT, 130.92 MT,  31.69 MT
Total_OMP_taskloop_scheduling,  16.00   ,   0.00  T,   0.00  T,   0.00  T,   0.00  T,   0.00  T

Counter,                 ThreadCount,    Min,      Mean,       Max,     Total,        SD
OMP_PARALLEL             ,   1.00   ,   0.00   ,   0.00   ,   0.00   ,   0.00   ,   0.00   
OMP_NESTED_PARALLEL      ,  16.00   ,   0.00   ,   0.00   ,   0.00   ,   0.00   ,   0.00   
OMP_FOR_static           ,  16.00   ,   0.00   ,   0.00   ,   0.00   ,   0.00   ,   0.00   
OMP_FOR_static_steal     ,  16.00   ,   0.00   ,   0.00   ,   0.00   ,   0.00   ,   0.00   
OMP_FOR_dynamic          ,  16.00   ,   0.00   ,   0.00   ,   0.00   ,   0.00   ,   0.00   
OMP_DISTRIBUTE           ,  16.00   ,   0.00   ,   0.00   ,   0.00   ,   0.00   ,   0.00   
OMP_BARRIER              ,  16.00   ,   1.00   ,   1.00   ,   1.00   ,  16.00   ,   0.00   
OMP_CRITICAL             ,  16.00   ,   0.00   ,   0.00   ,   0.00   ,   0.00   ,   0.00   
OMP_SINGLE               ,  16.00   ,   0.00   ,   0.00   ,   0.00   ,   0.00   ,   0.00   
OMP_MASTER               ,  16.00   ,   0.00   ,   0.00   ,   0.00   ,   0.00   ,   0.00   
OMP_TEAMS                ,  16.00   ,   0.00   ,   0.00   ,   0.00   ,   0.00   ,   0.00   
OMP_set_lock             ,  16.00   ,   0.00   ,   0.00   ,   0.00   ,   0.00   ,   0.00   
OMP_test_lock            ,  16.00   ,   0.00   ,   0.00   ,   0.00   ,   0.00   ,   0.00   
REDUCE_wait              ,  16.00   ,   0.00   ,   0.00   ,   0.00   ,   0.00   ,   0.00   
REDUCE_nowait            ,  16.00   ,   0.00   ,   0.00   ,   0.00   ,   0.00   ,   0.00   
OMP_TASKYIELD            ,  16.00   ,   0.00   ,   0.00   ,   0.00   ,   0.00   ,   0.00   
OMP_TASKLOOP             ,  16.00   ,   0.00   ,   0.00   ,   0.00   ,   0.00   ,   0.00   
TASK_executed            ,  16.00   , 561.00   , 715.00   , 882.00   ,  11.44 k , 103.85   
TASK_cancelled           ,  16.00   ,   0.00   ,   0.00   ,   0.00   ,   0.00   ,   0.00   
TASK_stolen              ,  16.00   , 528.00   , 669.63   , 819.00   ,  10.71 k ,  94.15   
total_time 151.693693
compute_time 149.628810
